20

1 12
4
f 0 1 w
t 0 1 s
t 0 4 w
t 0 9 s
6 2

6 18
4
h 4 15 n
h 2 8 s
r 5 11 w
h 1 12 n
5 3

8 12
14
h 5 9 e
r 3 10 s
t 1 6 w
f 6 9 e
h 6 0 n
r 3 9 w
t 5 6 e
f 3 3 s
t 5 3 n
h 4 7 w
t 1 11 w
t 6 2 e
t 3 0 n
h 0 0 s
3 3

8 9
8
t 0 6 e
h 0 8 w
t 2 0 n
f 3 0 s
f 7 4 s
h 6 5 w
t 1 8 n
t 6 3 n
5 3

3 9
11
r 2 7 w
h 0 3 n
h 1 6 w
t 0 8 n
h 0 1 e
t 1 5 w
f 0 3 e
f 0 2 e
h 0 8 w
t 0 3 w
f 0 7 s
10 3

5 3
13
r 3 1 n
r 0 1 w
r 2 1 w
h 3 1 e
h 0 2 s
t 3 0 n
h 1 2 e
r 3 0 e
t 3 1 w
h 1 1 n
f 0 1 w
h 1 2 n
t 2 2 w
7 1

5 16
8
r 2 2 s
f 4 13 n
t 4 4 n
h 3 11 s
f 3 12 n
f 0 5 n
t 4 14 s
t 4 13 s
6 1

3 9
11
t 1 2 w
h 0 8 s
f 0 1 s
r 2 1 n
r 2 6 s
h 0 7 e
t 0 8 s
t 1 3 e
f 0 1 e
r 1 4 w
h 0 6 e
4 3

2 6
10
t 1 0 w
r 0 2 s
f 1 0 e
r 1 2 s
t 1 2 s
f 0 2 n
h 0 5 w
f 1 2 w
t 1 2 e
f 0 1 w
9 2

2 18
2
r 0 2 s
r 1 3 e
7 5

2 15
6
f 1 10 w
f 0 8 w
t 1 4 w
f 1 2 w
t 1 4 n
h 1 10 w
2 1

8 7
9
t 3 2 n
f 3 1 n
r 1 0 n
h 0 4 s
h 5 2 w
r 3 2 s
h 3 0 n
f 7 6 n
h 1 6 w
5 2

10 2
4
r 3 1 n
f 0 1 s
r 6 1 e
f 2 0 w
8 3

3 15
1
h 1 5 n
5 2

1 14
7
f 0 2 w
t 0 12 n
h 0 13 e
r 0 10 w
t 0 4 w
r 0 4 e
r 0 10 e
3 1

3 9
14
r 1 4 s
f 0 2 n
f 2 0 n
t 1 1 e
h 1 3 s
r 2 4 s
f 2 1 w
h 0 4 s
h 2 1 w
r 1 6 e
h 2 3 e
r 1 2 s
f 0 8 w
h 2 4 e
1 1

10 14
3
h 2 10 e
r 6 0 s
t 6 5 s
2 2

1 18
6
r 0 2 s
r 0 2 n
t 0 12 n
t 0 14 n
h 0 9 e
t 0 0 n
5 1

4 14
14
t 0 3 s
t 2 10 n
h 2 9 n
r 2 4 s
f 2 1 n
h 2 0 e
r 3 5 w
f 0 3 s
r 3 5 e
h 1 11 w
h 3 9 n
r 3 12 w
t 0 0 w
r 1 3 w
5 1

3 7
9
t 0 6 n
h 1 1 w
t 1 2 s
h 0 1 n
t 1 6 w
r 2 0 e
r 1 4 w
r 1 1 s
t 2 1 w
8 3
