*** Darwin 14x9 ***
Turn = 0.
  012345678
0 .........
1 r........
2 .........
3 .........
4 .........
5 .........
6 .........
7 .....r...
8 .........
9 .........
0 .........
1 .........
2 .........
3 .........

Turn = 2.
  012345678
0 .........
1 ..r......
2 .........
3 .........
4 .........
5 .........
6 .........
7 ...r.....
8 .........
9 .........
0 .........
1 .........
2 .........
3 .........

Turn = 4.
  012345678
0 .........
1 ....r....
2 .........
3 .........
4 .........
5 .........
6 .........
7 .r.......
8 .........
9 .........
0 .........
1 .........
2 .........
3 .........

Turn = 6.
  012345678
0 .........
1 ......r..
2 .........
3 .........
4 .........
5 .........
6 .........
7 r........
8 .........
9 .........
0 .........
1 .........
2 .........
3 .........

*** Darwin 7x6 ***
Turn = 0.
  012345
0 f.....
1 .....r
2 ......
3 ..t...
4 ......
5 r.....
6 .hr...

Turn = 1.
  012345
0 f.....
1 ....r.
2 ......
3 ..t...
4 ......
5 .r....
6 .hr...

Turn = 2.
  012345
0 f.....
1 ...r..
2 ......
3 ..t...
4 ......
5 ..r...
6 .rr...

Turn = 3.
  012345
0 f.....
1 ..r...
2 ......
3 ..t...
4 ......
5 ...r..
6 .rr...

*** Darwin 7x8 ***
Turn = 0.
  01234567
0 ........
1 ........
2 ........
3 ........
4 ........
5 .......f
6 f.......

Turn = 2.
  01234567
0 ........
1 ........
2 ........
3 ........
4 ........
5 .......f
6 f.......

Turn = 4.
  01234567
0 ........
1 ........
2 ........
3 ........
4 ........
5 .......f
6 f.......

Turn = 6.
  01234567
0 ........
1 ........
2 ........
3 ........
4 ........
5 .......f
6 f.......

Turn = 8.
  01234567
0 ........
1 ........
2 ........
3 ........
4 ........
5 .......f
6 f.......

Turn = 10.
  01234567
0 ........
1 ........
2 ........
3 ........
4 ........
5 .......f
6 f.......

Turn = 12.
  01234567
0 ........
1 ........
2 ........
3 ........
4 ........
5 .......f
6 f.......

Turn = 14.
  01234567
0 ........
1 ........
2 ........
3 ........
4 ........
5 .......f
6 f.......

Turn = 16.
  01234567
0 ........
1 ........
2 ........
3 ........
4 ........
5 .......f
6 f.......

*** Darwin 14x15 ***
Turn = 0.
  012345678901234
0 ...............
1 .....t.....f...
2 ...............
3 ...............
4 ...............
5 ...............
6 ..............r
7 ...............
8 ..r.....h......
9 ..r...........f
0 ...............
1 ...........r...
2 ...............
3 ..r............

Turn = 3.
  012345678901234
0 ...............
1 .....t.....f...
2 ...............
3 ...............
4 ...............
5 ........h......
6 ...............
7 ...............
8 r.............r
9 ..............r
0 ...............
1 ..r...........r
2 ...r...........
3 ...............

*** Darwin 8x6 ***
Turn = 0.
  012345
0 ......
1 ......
2 ...f..
3 h.....
4 ..t...
5 .....t
6 ......
7 .hr...

Turn = 3.
  012345
0 ......
1 ......
2 ...f..
3 ..t...
4 .ht...
5 .....t
6 ......
7 .....r

Turn = 6.
  012345
0 ......
1 .h....
2 ...f..
3 ..t...
4 ..t...
5 .....t
6 ......
7 .....r

*** Darwin 5x10 ***
Turn = 0.
  0123456789
0 ..........
1 ...r......
2 ....f.....
3 ..........
4 .......t.h

Turn = 3.
  0123456789
0 ..........
1 ......r...
2 ....f.....
3 ..........
4 .......th.

*** Darwin 13x14 ***
Turn = 0.
  01234567890123
0 ......h.......
1 .t............
2 ..............
3 .....r........
4 ..............
5 ..f...........
6 .........r....
7 ..............
8 ..............
9 ..............
0 .f........h...
1 .............r
2 ....h.........

Turn = 2.
  01234567890123
0 ....h.........
1 .t...r........
2 ..............
3 ..............
4 ..............
5 ..f...........
6 ..............
7 ..............
8 .........r....
9 ..............
0 .f......h.....
1 ...........r..
2 ......h.......

Turn = 4.
  01234567890123
0 ..h..r........
1 .t............
2 ..............
3 ..............
4 ..............
5 ..f...........
6 ..............
7 ..............
8 ..............
9 ..............
0 .f....h..r....
1 .........r....
2 ........h.....

Turn = 6.
  01234567890123
0 h......r......
1 .t............
2 ..............
3 ..............
4 ..............
5 ..f...........
6 ..............
7 ..............
8 ..............
9 ..............
0 .f..h.....r...
1 .......r......
2 ..........h...

Turn = 8.
  01234567890123
0 h........r....
1 .t............
2 ..............
3 ..............
4 ..............
5 ..f...........
6 ..............
7 ..............
8 ..............
9 ..............
0 .fh.........r.
1 .....r........
2 ............h.

Turn = 10.
  01234567890123
0 h..........r..
1 .t............
2 ..............
3 ..............
4 ..............
5 ..f...........
6 ..............
7 ..............
8 ..............
9 ..............
0 .fh..........r
1 ...r..........
2 .............h

Turn = 12.
  01234567890123
0 h............r
1 .t............
2 ..............
3 ..............
4 ..............
5 ..f...........
6 ..............
7 ..............
8 ..............
9 ..............
0 .fh...........
1 .r...........r
2 .............r

Turn = 14.
  01234567890123
0 h.............
1 .t...........r
2 ..............
3 ..............
4 ..............
5 ..f...........
6 ..............
7 ..............
8 ..............
9 ..............
0 .fh...........
1 r...........r.
2 .............r

Turn = 16.
  01234567890123
0 h.............
1 .t............
2 ..............
3 .............r
4 ..............
5 ..f...........
6 ..............
7 ..............
8 ..............
9 ..............
0 .fh...........
1 ..........r...
2 r...........r.

*** Darwin 10x9 ***
Turn = 0.
  012345678
0 ......h..
1 .........
2 ..h...h..
3 .....r...
4 .........
5 .....t...
6 .r.....t.
7 t........
8 .........
9 .....h...

Turn = 2.
  012345678
0 ......h..
1 ......h..
2 .........
3 ...r.....
4 ..h......
5 .....t...
6 ...r...t.
7 t....h...
8 .........
9 .........

Turn = 4.
  012345678
0 ......h..
1 ......h..
2 .........
3 .r.......
4 .........
5 .....r...
6 ..h.rr.t.
7 t........
8 .........
9 .........

Turn = 6.
  012345678
0 ......h..
1 ......h..
2 .........
3 r........
4 .........
5 ....r....
6 ....r.rt.
7 t........
8 ..h......
9 .........

Turn = 8.
  012345678
0 ......h..
1 r.....h..
2 .........
3 .........
4 .......r.
5 ..r......
6 .....r.r.
7 t........
8 .........
9 ..h......

Turn = 10.
  012345678
0 r.....h..
1 ......h..
2 .......r.
3 .........
4 .........
5 r........
6 ........r
7 t........
8 .....r...
9 ..h......

*** Darwin 15x15 ***
Turn = 0.
  012345678901234
0 ...............
1 ...............
2 ...............
3 ...............
4 .........t.....
5 ...............
6 ...............
7 ...............
8 ...............
9 ...............
0 ...............
1 ...............
2 ...............
3 ...............
4 ...............

Turn = 2.
  012345678901234
0 ...............
1 ...............
2 ...............
3 ...............
4 .........t.....
5 ...............
6 ...............
7 ...............
8 ...............
9 ...............
0 ...............
1 ...............
2 ...............
3 ...............
4 ...............

*** Darwin 7x13 ***
Turn = 0.
  0123456789012
0 .............
1 .......f.....
2 .............
3 .............
4 ...r......r..
5 .............
6 ..h..........

Turn = 3.
  0123456789012
0 .............
1 ...r...f.....
2 .............
3 .............
4 ............r
5 .............
6 .....h.......

Turn = 6.
  0123456789012
0 ..r..........
1 .......f.....
2 .............
3 .............
4 .............
5 .............
6 ........h...r

Turn = 9.
  0123456789012
0 r............
1 .......f.....
2 .............
3 .............
4 .............
5 .............
6 ..........rr.

Turn = 12.
  0123456789012
0 r............
1 .......f.....
2 .............
3 ...........r.
4 .............
5 .............
6 ............r

Turn = 15.
  0123456789012
0 ...r.......r.
1 .......f.....
2 .............
3 .............
4 ............r
5 .............
6 .............

*** Darwin 13x8 ***
Turn = 0.
  01234567
0 ........
1 ........
2 .r......
3 ........
4 ........
5 f.......
6 ........
7 ........
8 ........
9 ........
0 ........
1 ........
2 ........

Turn = 3.
  01234567
0 ........
1 r.......
2 ........
3 ........
4 ........
5 f.......
6 ........
7 ........
8 ........
9 ........
0 ........
1 ........
2 ........

Turn = 6.
  01234567
0 r.......
1 ........
2 ........
3 ........
4 ........
5 f.......
6 ........
7 ........
8 ........
9 ........
0 ........
1 ........
2 ........

*** Darwin 15x8 ***
Turn = 0.
  01234567
0 ........
1 ........
2 ........
3 ........
4 ........
5 ........
6 ........
7 ..t.....
8 ........
9 ....f...
0 .....r..
1 ........
2 .......h
3 .....tr.
4 ........

Turn = 1.
  01234567
0 ........
1 ........
2 ........
3 ........
4 ........
5 ........
6 ........
7 ..t.....
8 ........
9 ....f...
0 ....r...
1 ........
2 ......h.
3 .....t.r
4 ........

Turn = 2.
  01234567
0 ........
1 ........
2 ........
3 ........
4 ........
5 ........
6 ........
7 ..t.....
8 ........
9 ....f...
0 ...r....
1 ........
2 .....h..
3 .....t.r
4 ........

Turn = 3.
  01234567
0 ........
1 ........
2 ........
3 ........
4 ........
5 ........
6 ........
7 ..t.....
8 ........
9 ....f...
0 ..r.....
1 ........
2 ....h...
3 .....t..
4 .......r

Turn = 4.
  01234567
0 ........
1 ........
2 ........
3 ........
4 ........
5 ........
6 ........
7 ..t.....
8 ........
9 ....f...
0 .r......
1 ........
2 ...h....
3 .....t..
4 .......r

Turn = 5.
  01234567
0 ........
1 ........
2 ........
3 ........
4 ........
5 ........
6 ........
7 ..t.....
8 ........
9 ....f...
0 r.......
1 ........
2 ..h.....
3 .....t..
4 .......r

Turn = 6.
  01234567
0 ........
1 ........
2 ........
3 ........
4 ........
5 ........
6 ........
7 ..t.....
8 ........
9 ....f...
0 r.......
1 ........
2 .h......
3 .....t..
4 .......r

Turn = 7.
  01234567
0 ........
1 ........
2 ........
3 ........
4 ........
5 ........
6 ........
7 ..t.....
8 ........
9 r...f...
0 ........
1 ........
2 h.......
3 .....t..
4 ......r.

Turn = 8.
  01234567
0 ........
1 ........
2 ........
3 ........
4 ........
5 ........
6 ........
7 ..t.....
8 r.......
9 ....f...
0 ........
1 ........
2 h.......
3 .....t..
4 .....r..

Turn = 9.
  01234567
0 ........
1 ........
2 ........
3 ........
4 ........
5 ........
6 ........
7 r.t.....
8 ........
9 ....f...
0 ........
1 ........
2 h.......
3 .....t..
4 ....r...

Turn = 10.
  01234567
0 ........
1 ........
2 ........
3 ........
4 ........
5 ........
6 r.......
7 ..t.....
8 ........
9 ....f...
0 ........
1 ........
2 h.......
3 .....t..
4 ...r....

Turn = 11.
  01234567
0 ........
1 ........
2 ........
3 ........
4 ........
5 r.......
6 ........
7 ..t.....
8 ........
9 ....f...
0 ........
1 ........
2 h.......
3 .....t..
4 ..r.....

Turn = 12.
  01234567
0 ........
1 ........
2 ........
3 ........
4 r.......
5 ........
6 ........
7 ..t.....
8 ........
9 ....f...
0 ........
1 ........
2 h.......
3 .....t..
4 .r......

Turn = 13.
  01234567
0 ........
1 ........
2 ........
3 r.......
4 ........
5 ........
6 ........
7 ..t.....
8 ........
9 ....f...
0 ........
1 ........
2 h.......
3 .....t..
4 r.......

Turn = 14.
  01234567
0 ........
1 ........
2 r.......
3 ........
4 ........
5 ........
6 ........
7 ..t.....
8 ........
9 ....f...
0 ........
1 ........
2 h.......
3 .....t..
4 r.......

Turn = 15.
  01234567
0 ........
1 r.......
2 ........
3 ........
4 ........
5 ........
6 ........
7 ..t.....
8 ........
9 ....f...
0 ........
1 ........
2 h.......
3 r....t..
4 ........

Turn = 16.
  01234567
0 r.......
1 ........
2 ........
3 ........
4 ........
5 ........
6 ........
7 ..t.....
8 ........
9 ....f...
0 ........
1 ........
2 r.......
3 r....t..
4 ........

Turn = 17.
  01234567
0 r.......
1 ........
2 ........
3 ........
4 ........
5 ........
6 ........
7 ..t.....
8 ........
9 ....f...
0 ........
1 ........
2 r.......
3 r....t..
4 ........

Turn = 18.
  01234567
0 r.......
1 ........
2 ........
3 ........
4 ........
5 ........
6 ........
7 ..t.....
8 ........
9 ....f...
0 ........
1 ........
2 r.......
3 .r...t..
4 ........

Turn = 19.
  01234567
0 r.......
1 ........
2 ........
3 ........
4 ........
5 ........
6 ........
7 ..t.....
8 ........
9 ....f...
0 ........
1 ........
2 .r......
3 ..r..t..
4 ........

*** Darwin 15x10 ***
Turn = 0.
  0123456789
0 ..........
1 ..........
2 ..........
3 ..........
4 .f........
5 ..........
6 ..........
7 ..........
8 ..........
9 ..........
0 ..........
1 ..........
2 .....f....
3 ..........
4 h.........

Turn = 2.
  0123456789
0 ..........
1 ..........
2 ..........
3 ..........
4 .f........
5 ..........
6 ..........
7 ..........
8 ..........
9 ..........
0 ..........
1 ..........
2 .....f....
3 ..........
4 ..h.......

*** Darwin 12x15 ***
Turn = 0.
  012345678901234
0 ...............
1 ..r....h.......
2 ....t..........
3 ...............
4 ...............
5 ...............
6 ...r...........
7 .....h.........
8 ...............
9 ...............
0 ..h............
1 .............h.

Turn = 3.
  012345678901234
0 ...r...........
1 ...............
2 ....t..........
3 ...............
4 .......h.......
5 ...............
6 r..............
7 ........h......
8 ...............
9 ...............
0 ...............
1 ..h...........h

Turn = 6.
  012345678901234
0 ......r........
1 ...............
2 ....t..........
3 ...............
4 ...............
5 ...............
6 ...............
7 .......h...h...
8 r..............
9 ...............
0 ...............
1 ..h...........h

Turn = 9.
  012345678901234
0 .........r.....
1 ...............
2 ....t..........
3 ...............
4 ...............
5 ...............
6 ...............
7 ..............h
8 ...............
9 ...............
0 .......h.......
1 r.h...........h

Turn = 12.
  012345678901234
0 ............r..
1 ...............
2 ....t..........
3 ...............
4 ...............
5 ...............
6 ...............
7 ..............h
8 ...............
9 ...............
0 r..............
1 ..h....h......h

Turn = 15.
  012345678901234
0 ..............r
1 ...............
2 ....t..........
3 ...............
4 ...............
5 ...............
6 ...............
7 r.............h
8 ...............
9 ...............
0 ...............
1 ..h....h......h

Turn = 18.
  012345678901234
0 ...............
1 ...............
2 ....t..........
3 ..............r
4 r..............
5 ...............
6 ...............
7 ..............h
8 ...............
9 ...............
0 ...............
1 ..h....h......h

*** Darwin 7x7 ***
Turn = 0.
  0123456
0 .......
1 .r.....
2 ff...h.
3 ....hr.
4 .....t.
5 .......
6 ..tr..h

Turn = 3.
  0123456
0 .......
1 ....r..
2 ff....h
3 .......
4 ....ttr
5 .......
6 ..t..rr

Turn = 6.
  0123456
0 .......
1 ......r
2 ff....h
3 .......
4 ....ttt
5 .......
6 ..t.rr.

*** Darwin 9x15 ***
Turn = 0.
  012345678901234
0 ...............
1 ..tr...........
2 ...............
3 ...............
4 .f.............
5 ...............
6 ...f...........
7 .....f.........
8 .r......t......

Turn = 1.
  012345678901234
0 ...............
1 ..rr...........
2 ...............
3 ...............
4 .f.............
5 ...............
6 ...f...........
7 .....f.........
8 r.......t......

Turn = 2.
  012345678901234
0 ...............
1 .rr............
2 ...............
3 ...............
4 .f.............
5 ...............
6 ...f...........
7 .....f.........
8 r.......t......

*** Darwin 12x10 ***
Turn = 0.
  0123456789
0 ..........
1 f...r.....
2 ....f.....
3 .h........
4 ..t.......
5 ..........
6 ..........
7 ..........
8 ..f.......
9 ..........
0 .....t....
1 ..........

Turn = 1.
  0123456789
0 ..........
1 f..r......
2 .h..f.....
3 ..........
4 ..t.......
5 ..........
6 ..........
7 ..........
8 ..f.......
9 ..........
0 .....t....
1 ..........

Turn = 2.
  0123456789
0 ..........
1 fhr.......
2 ....f.....
3 ..........
4 ..t.......
5 ..........
6 ..........
7 ..........
8 ..f.......
9 ..........
0 .....t....
1 ..........

Turn = 3.
  0123456789
0 .h........
1 fr........
2 ....f.....
3 ..........
4 ..t.......
5 ..........
6 ..........
7 ..........
8 ..f.......
9 ..........
0 .....t....
1 ..........

Turn = 4.
  0123456789
0 .h........
1 rr........
2 ....f.....
3 ..........
4 ..t.......
5 ..........
6 ..........
7 ..........
8 ..f.......
9 ..........
0 .....t....
1 ..........

Turn = 5.
  0123456789
0 .h........
1 rr........
2 ....f.....
3 ..........
4 ..t.......
5 ..........
6 ..........
7 ..........
8 ..f.......
9 ..........
0 .....t....
1 ..........

Turn = 6.
  0123456789
0 rh........
1 ..........
2 .r..f.....
3 ..........
4 ..t.......
5 ..........
6 ..........
7 ..........
8 ..f.......
9 ..........
0 .....t....
1 ..........

Turn = 7.
  0123456789
0 rh........
1 ..........
2 ....f.....
3 .r........
4 ..t.......
5 ..........
6 ..........
7 ..........
8 ..f.......
9 ..........
0 .....t....
1 ..........

Turn = 8.
  0123456789
0 rr........
1 ..........
2 ....f.....
3 ..........
4 .tt.......
5 ..........
6 ..........
7 ..........
8 ..f.......
9 ..........
0 .....t....
1 ..........

Turn = 9.
  0123456789
0 r.r.......
1 ..........
2 ....f.....
3 ..........
4 .tt.......
5 ..........
6 ..........
7 ..........
8 ..f.......
9 ..........
0 .....t....
1 ..........

Turn = 10.
  0123456789
0 ...r......
1 r.........
2 ....f.....
3 ..........
4 .tt.......
5 ..........
6 ..........
7 ..........
8 ..f.......
9 ..........
0 .....t....
1 ..........

Turn = 11.
  0123456789
0 ....r.....
1 ..........
2 r...f.....
3 ..........
4 .tt.......
5 ..........
6 ..........
7 ..........
8 ..f.......
9 ..........
0 .....t....
1 ..........

Turn = 12.
  0123456789
0 .....r....
1 ..........
2 ....f.....
3 r.........
4 .tt.......
5 ..........
6 ..........
7 ..........
8 ..f.......
9 ..........
0 .....t....
1 ..........

Turn = 13.
  0123456789
0 ......r...
1 ..........
2 ....f.....
3 ..........
4 rtt.......
5 ..........
6 ..........
7 ..........
8 ..f.......
9 ..........
0 .....t....
1 ..........

Turn = 14.
  0123456789
0 .......r..
1 ..........
2 ....f.....
3 ..........
4 .tt.......
5 r.........
6 ..........
7 ..........
8 ..f.......
9 ..........
0 .....t....
1 ..........

Turn = 15.
  0123456789
0 ........r.
1 ..........
2 ....f.....
3 ..........
4 .tt.......
5 ..........
6 r.........
7 ..........
8 ..f.......
9 ..........
0 .....t....
1 ..........

Turn = 16.
  0123456789
0 .........r
1 ..........
2 ....f.....
3 ..........
4 .tt.......
5 ..........
6 ..........
7 r.........
8 ..f.......
9 ..........
0 .....t....
1 ..........

*** Darwin 9x6 ***
Turn = 0.
  012345
0 ......
1 ......
2 ......
3 .r....
4 ......
5 ......
6 ......
7 .t.th.
8 f..f..

Turn = 3.
  012345
0 .r....
1 ......
2 ......
3 ......
4 ......
5 ......
6 ......
7 .t.tt.
8 f..f..

*** Darwin 9x15 ***
Turn = 0.
  012345678901234
0 ...............
1 ...............
2 ...............
3 ...............
4 ...............
5 ......f........
6 ...............
7 ...............
8 ............hf.

Turn = 3.
  012345678901234
0 ...............
1 ...............
2 ...............
3 ...............
4 ...............
5 ......f........
6 ...............
7 ...............
8 ............hf.

*** Darwin 8x8 ***
Turn = 0.
  01234567
0 ..f.....
1 ........
2 ........
3 .f.f..h.
4 ........
5 .f......
6 ........
7 f.......

Turn = 2.
  01234567
0 ..f.....
1 ........
2 ........
3 .f.fh...
4 ........
5 .f......
6 ........
7 f.......

Turn = 4.
  01234567
0 ..f.....
1 ........
2 ........
3 .f.fh...
4 ........
5 .f......
6 ........
7 f.......

Turn = 6.
  01234567
0 ..f.....
1 ........
2 ........
3 .f.fh...
4 ........
5 .f......
6 ........
7 f.......

Turn = 8.
  01234567
0 ..f.....
1 ........
2 ........
3 .f.fh...
4 ........
5 .f......
6 ........
7 f.......

*** Darwin 6x10 ***
Turn = 0.
  0123456789
0 ..........
1 .........r
2 .......r..
3 ......r.r.
4 ..........
5 t.........

Turn = 2.
  0123456789
0 ..........
1 ..........
2 .....r...r
3 ........rr
4 ..........
5 t.........

Turn = 4.
  0123456789
0 ..........
1 .........r
2 ...r...r..
3 ..........
4 ........r.
5 t.........

*** Darwin 13x6 ***
Turn = 0.
  012345
0 ......
1 h.....
2 ......
3 .h.t..
4 ......
5 ......
6 ......
7 ...t..
8 ......
9 ...h..
0 ......
1 ......
2 ....r.

Turn = 1.
  012345
0 ......
1 .h....
2 ......
3 ..tt..
4 ......
5 ......
6 ......
7 ...t..
8 ......
9 ....h.
0 ......
1 ......
2 .....r

Turn = 2.
  012345
0 ......
1 ..h...
2 ......
3 ..tt..
4 ......
5 ......
6 ......
7 ...t..
8 ......
9 .....h
0 ......
1 ......
2 .....r

*** Darwin 12x15 ***
Turn = 0.
  012345678901234
0 .........r.....
1 ...............
2 ...............
3 ........t...r..
4 t..............
5 ...............
6 ..t............
7 ....h..........
8 ...............
9 ......h........
0 ...........r...
1 ...............

Turn = 3.
  012345678901234
0 ......r........
1 ...............
2 ...............
3 ........t......
4 t...h..........
5 ...............
6 ..t.........r..
7 ...........r...
8 ...............
9 .........h.....
0 ...............
1 ...............

Turn = 6.
  012345678901234
0 ...r...........
1 ....h..........
2 ...............
3 ........t......
4 t..........r...
5 ...............
6 ..t............
7 ...............
8 ...............
9 ...........hr..
0 ...............
1 ...............

Turn = 9.
  012345678901234
0 r...h..........
1 ...........r...
2 ...............
3 ........t......
4 t..............
5 ...............
6 ..t............
7 ...............
8 ...............
9 .............h.
0 ...............
1 ............r..

Turn = 12.
  012345678901234
0 ....h.......r..
1 ...............
2 r..............
3 ........t......
4 t..............
5 ...............
6 ..t............
7 ...............
8 ...............
9 ..............h
0 ...............
1 .........r.....

Turn = 15.
  012345678901234
0 ....h.........r
1 ...............
2 ...............
3 t.......t......
4 t..............
5 ...............
6 ..t............
7 ...............
8 ...............
9 ..............h
0 ...............
1 ......r........

*** Darwin 7x8 ***
Turn = 0.
  01234567
0 ..tf....
1 ....f...
2 r.....t.
3 ......r.
4 .r......
5 ....t...
6 ........

Turn = 2.
  01234567
0 ..tt....
1 ....f...
2 ..r..rr.
3 ........
4 ...r....
5 ....t...
6 ........

Turn = 4.
  01234567
0 ..tt..r.
1 ....f...
2 ...rr...
3 ........
4 .....r..
5 ....t...
6 ........

*** Darwin 9x15 ***
Turn = 0.
  012345678901234
0 ...............
1 ...............
2 ........t......
3 ..t............
4 ...............
5 ...............
6 ...h...........
7 ...............
8 ...............

Turn = 3.
  012345678901234
0 ...............
1 ...............
2 ........t......
3 ..t............
4 ...............
5 ...............
6 h..............
7 ...............
8 ...............

Turn = 6.
  012345678901234
0 ...............
1 ...............
2 ........t......
3 ..t............
4 ...............
5 ...............
6 h..............
7 ...............
8 ...............

Turn = 9.
  012345678901234
0 ...............
1 ...............
2 ........t......
3 ..t............
4 ...............
5 ...............
6 h..............
7 ...............
8 ...............

*** Darwin 12x8 ***
Turn = 0.
  01234567
0 ........
1 ........
2 ........
3 ....fr..
4 ........
5 ....h...
6 ........
7 ........
8 ......t.
9 ........
0 ..r.....
1 ........

Turn = 1.
  01234567
0 ........
1 ........
2 ........
3 ....f.r.
4 ........
5 ........
6 ....h...
7 ........
8 ......t.
9 ........
0 ........
1 ..r.....

Turn = 2.
  01234567
0 ........
1 ........
2 ........
3 ....f..r
4 ........
5 ........
6 ........
7 ....h...
8 ......t.
9 ........
0 ........
1 ..r.....

Turn = 3.
  01234567
0 ........
1 ........
2 ........
3 ....f..r
4 ........
5 ........
6 ........
7 ........
8 ....h.t.
9 ........
0 ........
1 .r......

Turn = 4.
  01234567
0 ........
1 ........
2 .......r
3 ....f...
4 ........
5 ........
6 ........
7 ........
8 ......t.
9 ....h...
0 ........
1 r.......

Turn = 5.
  01234567
0 ........
1 .......r
2 ........
3 ....f...
4 ........
5 ........
6 ........
7 ........
8 ......t.
9 ........
0 ....h...
1 r.......

Turn = 6.
  01234567
0 .......r
1 ........
2 ........
3 ....f...
4 ........
5 ........
6 ........
7 ........
8 ......t.
9 ........
0 r.......
1 ....h...

Turn = 7.
  01234567
0 .......r
1 ........
2 ........
3 ....f...
4 ........
5 ........
6 ........
7 ........
8 ......t.
9 r.......
0 ........
1 ....h...

Turn = 8.
  01234567
0 .......r
1 ........
2 ........
3 ....f...
4 ........
5 ........
6 ........
7 ........
8 r.....t.
9 ........
0 ........
1 ....h...

Turn = 9.
  01234567
0 ........
1 .......r
2 ........
3 ....f...
4 ........
5 ........
6 ........
7 r.......
8 ......t.
9 ........
0 ........
1 ....h...

Turn = 10.
  01234567
0 ........
1 ........
2 .......r
3 ....f...
4 ........
5 ........
6 r.......
7 ........
8 ......t.
9 ........
0 ........
1 ....h...

Turn = 11.
  01234567
0 ........
1 ........
2 ........
3 ....f..r
4 ........
5 r.......
6 ........
7 ........
8 ......t.
9 ........
0 ........
1 ....h...

Turn = 12.
  01234567
0 ........
1 ........
2 ........
3 ....f...
4 r......r
5 ........
6 ........
7 ........
8 ......t.
9 ........
0 ........
1 ....h...

Turn = 13.
  01234567
0 ........
1 ........
2 ........
3 r...f...
4 ........
5 .......r
6 ........
7 ........
8 ......t.
9 ........
0 ........
1 ....h...

Turn = 14.
  01234567
0 ........
1 ........
2 r.......
3 ....f...
4 ........
5 ........
6 .......r
7 ........
8 ......t.
9 ........
0 ........
1 ....h...

Turn = 15.
  01234567
0 ........
1 r.......
2 ........
3 ....f...
4 ........
5 ........
6 ........
7 .......r
8 ......t.
9 ........
0 ........
1 ....h...

Turn = 16.
  01234567
0 r.......
1 ........
2 ........
3 ....f...
4 ........
5 ........
6 ........
7 ........
8 ......tr
9 ........
0 ........
1 ....h...

*** Darwin 11x8 ***
Turn = 0.
  01234567
0 ....r...
1 .r......
2 ......h.
3 ........
4 ........
5 ........
6 ........
7 ........
8 ..f....f
9 ........
0 ......h.

Turn = 3.
  01234567
0 r.....hr
1 ........
2 ........
3 ........
4 ........
5 ........
6 ........
7 ........
8 ..f....f
9 ........
0 ...h....

Turn = 6.
  01234567
0 r.....h.
1 ........
2 .......r
3 ........
4 ........
5 ........
6 ........
7 ........
8 ..f....f
9 ........
0 h.......

*** Darwin 12x14 ***
Turn = 0.
  01234567890123
0 ..............
1 ........f.....
2 ..............
3 ..............
4 ..............
5 ..............
6 ............h.
7 .............h
8 ..............
9 ..............
0 ..............
1 ..............

Turn = 3.
  01234567890123
0 ..............
1 ........f.....
2 ..............
3 ..............
4 ..............
5 ..............
6 ..............
7 ...........h..
8 ..............
9 ............h.
0 ..............
1 ..............

Turn = 6.
  01234567890123
0 ..............
1 ........f.....
2 ..............
3 ..............
4 ..............
5 ..............
6 ..............
7 ........h.....
8 ..............
9 ..............
0 ..............
1 ............h.

Turn = 9.
  01234567890123
0 ..............
1 ........f.....
2 ..............
3 ..............
4 ..............
5 ..............
6 ..............
7 .....h........
8 ..............
9 ..............
0 ..............
1 ............h.

Turn = 12.
  01234567890123
0 ..............
1 ........f.....
2 ..............
3 ..............
4 ..............
5 ..............
6 ..............
7 ..h...........
8 ..............
9 ..............
0 ..............
1 ............h.

*** Darwin 15x7 ***
Turn = 0.
  0123456
0 ...r...
1 .......
2 .......
3 .......
4 .f.....
5 .......
6 .......
7 .......
8 ..h....
9 .r.....
0 .......
1 .......
2 .h.....
3 .......
4 .......

Turn = 2.
  0123456
0 .r.....
1 .......
2 .......
3 .......
4 .f.....
5 .......
6 .......
7 .r.....
8 ....h..
9 .......
0 .......
1 .......
2 h......
3 .......
4 .......

Turn = 4.
  0123456
0 r......
1 .......
2 .......
3 .......
4 .f.....
5 .r.....
6 .......
7 .......
8 ......h
9 .......
0 .......
1 .......
2 h......
3 .......
4 .......

Turn = 6.
  0123456
0 r......
1 .......
2 .......
3 .......
4 .rr....
5 .......
6 .......
7 .......
8 ......h
9 .......
0 .......
1 .......
2 h......
3 .......
4 .......

Turn = 8.
  0123456
0 .r.....
1 .......
2 .r.....
3 .......
4 ....r..
5 .......
6 .......
7 .......
8 ......h
9 .......
0 .......
1 .......
2 h......
3 .......
4 .......

Turn = 10.
  0123456
0 .r.r...
1 .......
2 .......
3 .......
4 ......r
5 .......
6 .......
7 .......
8 ......h
9 .......
0 .......
1 .......
2 h......
3 .......
4 .......

Turn = 12.
  0123456
0 ..r..r.
1 .......
2 .......
3 .......
4 .......
5 ......r
6 .......
7 .......
8 ......h
9 .......
0 .......
1 .......
2 h......
3 .......
4 .......

*** Darwin 12x5 ***
Turn = 0.
  01234
0 .....
1 ..h..
2 .....
3 .....
4 .....
5 t....
6 .....
7 .....
8 ...f.
9 .h...
0 .....
1 .....

Turn = 3.
  01234
0 .....
1 ....h
2 .....
3 .....
4 .....
5 t....
6 .h...
7 .....
8 ...f.
9 .....
0 .....
1 .....
