30

14 9
2
r 7 5 w
r 1 0 e
6 2

7 6
7
r 0 0 s
f 0 0 w
h 6 1 e
r 1 5 w
r 5 0 e
t 3 2 e
r 6 2 s
3 1

7 8
2
f 6 0 w
f 5 7 e
16 2

14 15
9
r 13 2 n
f 1 11 s
f 9 14 w
r 6 14 s
r 8 2 w
t 1 5 s
r 11 11 e
h 8 8 n
r 9 2 s
3 3

8 6
6
t 4 2 e
t 5 5 w
f 2 3 w
h 3 0 e
r 7 2 e
h 7 1 n
8 3

5 10
5
h 4 9 w
t 2 4 e
r 1 3 e
f 2 4 w
t 4 7 n
5 3

13 14
9
t 1 1 w
r 6 9 s
f 10 1 s
r 11 13 w
h 0 6 w
f 5 2 s
h 10 10 w
h 12 4 e
r 3 5 n
17 2

10 9
9
h 0 6 n
t 7 0 e
t 6 7 s
h 2 6 n
r 6 1 e
h 9 5 n
t 5 5 s
h 2 2 s
r 3 5 w
10 2

15 15
1
t 4 9 w
3 2

7 13
4
r 4 10 e
f 1 7 w
r 4 3 n
h 6 2 e
17 3

13 8
2
r 2 1 w
f 5 0 s
6 3

15 8
7
t 7 2 n
r 13 6 e
r 9 4 w
r 10 5 w
f 9 4 w
h 12 7 w
t 13 5 n
19 1

15 10
3
h 14 0 e
f 4 1 s
f 12 5 e
2 2

12 15
8
r 6 3 w
r 1 2 w
h 11 13 e
r 1 2 n
h 10 2 s
h 7 5 e
h 1 7 s
t 2 4 n
19 3

7 7
10
h 6 6 s
f 2 1 w
r 1 1 e
t 6 2 w
r 3 5 e
h 3 4 s
r 6 3 e
t 4 5 w
h 2 5 e
f 2 0 s
6 3

9 15
9
f 1 3 n
r 1 3 w
r 1 2 s
t 1 2 n
r 8 1 w
f 7 5 n
f 4 1 s
f 6 3 w
t 8 8 n
2 1

12 10
7
f 1 0 w
t 4 2 s
f 8 2 e
t 10 5 e
h 3 1 n
r 1 4 w
f 2 4 s
16 1

9 6
7
f 8 0 s
f 8 3 s
r 3 1 n
t 7 1 e
h 7 4 e
f 7 3 w
t 7 3 e
3 3

9 15
3
h 8 12 s
f 5 6 s
f 8 13 s
3 3

8 8
8
t 5 1 s
f 7 0 s
f 3 3 e
f 0 2 s
f 3 1 w
t 5 1 w
h 3 6 w
f 5 1 s
9 2

6 10
5
r 3 6 e
r 1 9 s
r 3 8 e
t 5 0 w
r 2 7 w
5 2

13 6
6
h 9 3 e
h 1 0 e
r 12 4 e
t 7 3 s
t 3 3 w
h 3 1 e
2 1

12 15
8
h 9 6 e
t 4 0 n
r 10 11 n
t 6 2 n
h 7 4 n
r 3 12 s
t 3 8 w
r 0 9 w
17 3

7 8
9
r 3 6 n
f 0 3 s
f 1 4 s
t 2 6 n
r 4 1 e
t 0 2 e
r 2 0 e
f 0 3 n
t 5 4 n
4 2

9 15
3
t 3 2 w
t 2 8 w
h 6 3 w
11 3

12 8
6
h 3 5 n
t 8 6 w
r 3 5 e
f 3 4 n
r 10 2 s
h 5 4 s
16 1

11 8
7
f 8 2 w
r 1 1 w
f 8 7 e
h 10 6 w
r 0 4 e
h 2 6 w
h 2 6 n
6 3

12 14
3
h 6 12 s
h 7 13 w
f 1 8 w
14 3

15 7
5
f 4 1 s
r 9 1 n
h 8 2 e
r 0 3 w
h 12 1 w
13 2

12 5
5
t 5 0 e
h 1 2 e
t 8 3 s
f 8 3 s
h 9 1 n
4 3
