*** Darwin 4x34 ***
Turn = 0.
  0123456789012345678901234567890123
0 ..........................r.......
1 ...t.............hh.......t.......
2 ...........................r...h..
3 ..................................

Turn = 2.
  0123456789012345678901234567890123
0 ............................r.....
1 ...t......................t.......
2 .............................r...h
3 .................hh...............

*** Darwin 2x28 ***
Turn = 0.
  0123456789012345678901234567
0 ............ff.t............
1 ......f..t.f.....h..f.......

Turn = 2.
  0123456789012345678901234567
0 ............ff.t............
1 ......f..t.f.......hf.......

Turn = 4.
  0123456789012345678901234567
0 ............ff.t............
1 ......f..t.f.......hf.......

*** Darwin 1x43 ***
Turn = 0.
  0123456789012345678901234567890123456789012
0 f.f..t...h.......t....r....r.t.........t...

Turn = 2.
  0123456789012345678901234567890123456789012
0 f.f..t...h.......t...r...r...t.........t...

*** Darwin 5x28 ***
Turn = 0.
  0123456789012345678901234567
0 ..........t.................
1 ............................
2 ..........h......r.f........
3 .......................r....
4 .............r..............

*** Darwin 2x41 ***
Turn = 0.
  01234567890123456789012345678901234567890
0 .....h.........hr........................
1 ....f...................f................

Turn = 2.
  01234567890123456789012345678901234567890
0 ...h.........h...r.......................
1 ....f...................f................

*** Darwin 1x32 ***
Turn = 0.
  01234567890123456789012345678901
0 .........h.r...f..r..t..tr......

Turn = 2.
  01234567890123456789012345678901
0 ..........h.r..f...r.t..rr......

*** Darwin 2x23 ***
Turn = 0.
  01234567890123456789012
0 .........h....f........
1 ..h..tf..r..........t..

*** Darwin 3x38 ***
Turn = 0.
  01234567890123456789012345678901234567
0 .......f..........h...........t...t...
1 ....f................tt..rf..t........
2 ..................f............t.....r

*** Darwin 3x2 ***
Turn = 0.
  01
0 ft
1 rf
2 tr

Turn = 2.
  01
0 tt
1 rr
2 rr

*** Darwin 2x34 ***
Turn = 0.
  0123456789012345678901234567890123
0 ...........f.t.f..f.....r.........
1 ..t......................t........

Turn = 2.
  0123456789012345678901234567890123
0 ...........f.t.f..f...r...........
1 ..t......................t........

Turn = 4.
  0123456789012345678901234567890123
0 ...........f.t.f..f.r.............
1 ..t......................t........

*** Darwin 4x45 ***
Turn = 0.
  012345678901234567890123456789012345678901234
0 ..h...h......h.......f.......................
1 ..............................t..............
2 ...................................r........f
3 ....h.....t....h.....h.......................

Turn = 2.
  012345678901234567890123456789012345678901234
0 ...........h.........f.......................
1 ....h.........................t..............
2 ..h...h.....................................f
3 ..........t......h.h...............r.........

*** Darwin 3x23 ***
Turn = 0.
  01234567890123456789012
0 ..........f...f.....r..
1 ......r....t......t....
2 .....r................f

*** Darwin 1x9 ***
Turn = 0.
  012345678
0 .fr..rrr.

Turn = 2.
  012345678
0 .f.rr.r.r

*** Darwin 4x16 ***
Turn = 0.
  0123456789012345
0 ..h..........h..
1 .h.hh..t........
2 ......tf.r.h.f..
3 ..........t.r.f.

Turn = 2.
  0123456789012345
0 h..hh......h....
1 h......t.....h..
2 ......ttt....f..
3 ..........rr..f.

*** Darwin 5x27 ***
Turn = 0.
  012345678901234567890123456
0 ........................r..
1 ...............t...........
2 ...........................
3 ........................r..
4 ...........................

*** Darwin 5x48 ***
Turn = 0.
  012345678901234567890123456789012345678901234567
0 .h..............................................
1 ................................................
2 ................................................
3 ......................................h.........
4 .............r..................................

Turn = 2.
  012345678901234567890123456789012345678901234567
0 h...............................................
1 ......................................h.........
2 ................................................
3 ................................................
4 ............r...................................

Turn = 4.
  012345678901234567890123456789012345678901234567
0 h.....................................h.........
1 ................................................
2 ................................................
3 ................................................
4 ..........r.....................................

*** Darwin 4x7 ***
Turn = 0.
  0123456
0 .....t.
1 ....r.f
2 .......
3 h......

Turn = 2.
  0123456
0 .....t.
1 ......f
2 .......
3 h...r..

*** Darwin 2x47 ***
Turn = 0.
  01234567890123456789012345678901234567890123456
0 ...t............f............r.....t...........
1 r..........ft.h...............r...r.........f..

Turn = 2.
  01234567890123456789012345678901234567890123456
0 r..t..........h.f..............r..tt...........
1 ...........tt...............r...............f..

Turn = 4.
  01234567890123456789012345678901234567890123456
0 ..rt..........h.f................rtt...........
1 ...........tt.............r.................f..

*** Darwin 5x46 ***
Turn = 0.
  0123456789012345678901234567890123456789012345
0 ....r..............t..........................
1 .....f........................................
2 ..............................................
3 r.................f...........................
4 ........t................r....................

Turn = 2.
  0123456789012345678901234567890123456789012345
0 ......r............t..........................
1 r....f........................................
2 ..............................................
3 ..................f...........................
4 ........t..............r......................

*** Darwin 4x34 ***
Turn = 0.
  0123456789012345678901234567890123
0 ..r......h.............t......r...
1 ..................h....h........r.
2 ................t.................
3 .......f.............h............

Turn = 2.
  0123456789012345678901234567890123
0 ....r..................t........r.
1 ....................h..t..........
2 .........h......t.................
3 .......f...............h........r.

Turn = 4.
  0123456789012345678901234567890123
0 ......r................t.........r
1 ......................ht..........
2 ................t.................
3 .......f.h...............h.....r..
