*** Darwin 10x9 ***
Turn = 0.
  012345678
0 .........
1 ..f....h.
2 .....f...
3 .t.....f.
4 .........
5 .....r...
6 .........
7 .........
8 .........
9 .........

Turn = 2.
  012345678
0 .........
1 ..f..h...
2 .....f...
3 .t...r.f.
4 .........
5 .........
6 .........
7 .........
8 .........
9 .........

Turn = 4.
  012345678
0 .........
1 ..fh.....
2 ....rr...
3 .t.....f.
4 .........
5 .........
6 .........
7 .........
8 .........
9 .........

Turn = 6.
  012345678
0 .....r...
1 ..fh.....
2 ..r......
3 .t.....f.
4 .........
5 .........
6 .........
7 .........
8 .........
9 .........

Turn = 8.
  012345678
0 ......r..
1 ..fh.....
2 r........
3 .t.....f.
4 .........
5 .........
6 .........
7 .........
8 .........
9 .........

Turn = 10.
  012345678
0 ........r
1 ..fh.....
2 .........
3 rt.....f.
4 .........
5 .........
6 .........
7 .........
8 .........
9 .........

*** Darwin 17x21 ***
Turn = 0.
  012345678901234567890
0 ...................t.
1 ................h...h
2 ..........t.....f....
3 .....................
4 h....................
5 .....................
6 .............t.......
7 .....f...............
8 .....................
9 .....................
0 .....................
1 .....................
2 .....................
3 .....................
4 .....t...............
5 .....h...............
6 .....................

Turn = 2.
  012345678901234567890
0 ................h..t.
1 ...................t.
2 ..........t.....f....
3 .....................
4 h....................
5 .....................
6 .............t.......
7 .....f...............
8 .....................
9 .....................
0 .....................
1 .....................
2 .....................
3 .....................
4 .....t...............
5 .....t...............
6 .....................

Turn = 4.
  012345678901234567890
0 ................h..t.
1 ...................t.
2 ..........t.....f....
3 .....................
4 h....................
5 .....................
6 .............t.......
7 .....f...............
8 .....................
9 .....................
0 .....................
1 .....................
2 .....................
3 .....................
4 .....t...............
5 .....t...............
6 .....................

Turn = 6.
  012345678901234567890
0 ................h..t.
1 ...................t.
2 ..........t.....f....
3 .....................
4 h....................
5 .....................
6 .............t.......
7 .....f...............
8 .....................
9 .....................
0 .....................
1 .....................
2 .....................
3 .....................
4 .....t...............
5 .....t...............
6 .....................

Turn = 8.
  012345678901234567890
0 ................h..t.
1 ...................t.
2 ..........t.....f....
3 .....................
4 h....................
5 .....................
6 .............t.......
7 .....f...............
8 .....................
9 .....................
0 .....................
1 .....................
2 .....................
3 .....................
4 .....t...............
5 .....t...............
6 .....................

Turn = 10.
  012345678901234567890
0 ................h..t.
1 ...................t.
2 ..........t.....f....
3 .....................
4 h....................
5 .....................
6 .............t.......
7 .....f...............
8 .....................
9 .....................
0 .....................
1 .....................
2 .....................
3 .....................
4 .....t...............
5 .....t...............
6 .....................

Turn = 12.
  012345678901234567890
0 ................h..t.
1 ...................t.
2 ..........t.....f....
3 .....................
4 h....................
5 .....................
6 .............t.......
7 .....f...............
8 .....................
9 .....................
0 .....................
1 .....................
2 .....................
3 .....................
4 .....t...............
5 .....t...............
6 .....................

Turn = 14.
  012345678901234567890
0 ................h..t.
1 ...................t.
2 ..........t.....f....
3 .....................
4 h....................
5 .....................
6 .............t.......
7 .....f...............
8 .....................
9 .....................
0 .....................
1 .....................
2 .....................
3 .....................
4 .....t...............
5 .....t...............
6 .....................

Turn = 16.
  012345678901234567890
0 ................h..t.
1 ...................t.
2 ..........t.....f....
3 .....................
4 h....................
5 .....................
6 .............t.......
7 .....f...............
8 .....................
9 .....................
0 .....................
1 .....................
2 .....................
3 .....................
4 .....t...............
5 .....t...............
6 .....................

Turn = 18.
  012345678901234567890
0 ................h..t.
1 ...................t.
2 ..........t.....f....
3 .....................
4 h....................
5 .....................
6 .............t.......
7 .....f...............
8 .....................
9 .....................
0 .....................
1 .....................
2 .....................
3 .....................
4 .....t...............
5 .....t...............
6 .....................

*** Darwin 13x12 ***
Turn = 0.
  012345678901
0 ............
1 ............
2 ............
3 .........r..
4 ............
5 ............
6 ............
7 ............
8 ............
9 ............
0 ............
1 ...........t
2 ............

Turn = 2.
  012345678901
0 ............
1 .........r..
2 ............
3 ............
4 ............
5 ............
6 ............
7 ............
8 ............
9 ............
0 ............
1 ...........t
2 ............

Turn = 4.
  012345678901
0 .........r..
1 ............
2 ............
3 ............
4 ............
5 ............
6 ............
7 ............
8 ............
9 ............
0 ............
1 ...........t
2 ............

Turn = 6.
  012345678901
0 ...........r
1 ............
2 ............
3 ............
4 ............
5 ............
6 ............
7 ............
8 ............
9 ............
0 ............
1 ...........t
2 ............

Turn = 8.
  012345678901
0 ...........r
1 ............
2 ............
3 ............
4 ............
5 ............
6 ............
7 ............
8 ............
9 ............
0 ............
1 ...........t
2 ............

Turn = 10.
  012345678901
0 ............
1 ...........r
2 ............
3 ............
4 ............
5 ............
6 ............
7 ............
8 ............
9 ............
0 ............
1 ...........t
2 ............

Turn = 12.
  012345678901
0 ............
1 ............
2 ............
3 ...........r
4 ............
5 ............
6 ............
7 ............
8 ............
9 ............
0 ............
1 ...........t
2 ............

Turn = 14.
  012345678901
0 ............
1 ............
2 ............
3 ............
4 ............
5 ...........r
6 ............
7 ............
8 ............
9 ............
0 ............
1 ...........t
2 ............

Turn = 16.
  012345678901
0 ............
1 ............
2 ............
3 ............
4 ............
5 ............
6 ............
7 ...........r
8 ............
9 ............
0 ............
1 ...........t
2 ............

Turn = 18.
  012345678901
0 ............
1 ............
2 ............
3 ............
4 ............
5 ............
6 ............
7 ............
8 ............
9 ...........r
0 ............
1 ...........t
2 ............

Turn = 20.
  012345678901
0 ............
1 ............
2 ............
3 ............
4 ............
5 ............
6 ............
7 ............
8 ............
9 ............
0 ...........r
1 ...........r
2 ............

Turn = 22.
  012345678901
0 ............
1 ............
2 ............
3 ............
4 ............
5 ............
6 ............
7 ............
8 ............
9 ............
0 ..........rr
1 ............
2 ............

*** Darwin 16x15 ***
Turn = 0.
  012345678901234
0 ...............
1 ...............
2 ...............
3 ...............
4 ...............
5 ...............
6 ...............
7 ...............
8 ........r......
9 ..r..t.....f...
0 ...............
1 ...............
2 ...............
3 ........h......
4 ..h....f.....r.
5 ...............

Turn = 2.
  012345678901234
0 ...............
1 ...............
2 ...............
3 ...............
4 ...............
5 ...............
6 ...............
7 ...............
8 ...............
9 .....t.....f...
0 ........r......
1 ..r............
2 ...............
3 ...............
4 .......f...r...
5 ..h.....h......

Turn = 4.
  012345678901234
0 ...............
1 ...............
2 ...............
3 ...............
4 ...............
5 ...............
6 ...............
7 ...............
8 ...............
9 .....t.....f...
0 ...............
1 ...............
2 ........r......
3 ..r............
4 .......f.r.....
5 ..h.....h......

Turn = 6.
  012345678901234
0 ...............
1 ...............
2 ...............
3 ...............
4 ...............
5 ...............
6 ...............
7 ...............
8 ...............
9 .....t.....f...
0 ...............
1 ...............
2 ...............
3 ........r......
4 ..r....rr......
5 ..r.....h......

Turn = 8.
  012345678901234
0 ...............
1 ...............
2 ...............
3 ...............
4 ...............
5 ...............
6 ...............
7 ...............
8 ...............
9 .....t.....f...
0 ...............
1 ...............
2 ...............
3 ......r........
4 .r...rr........
5 ....r...h......

Turn = 10.
  012345678901234
0 ...............
1 ...............
2 ...............
3 ...............
4 ...............
5 ...............
6 ...............
7 ...............
8 ...............
9 .....t.....f...
0 ...............
1 ...............
2 ...............
3 ....r..........
4 r..rr..........
5 ......r.h......

Turn = 12.
  012345678901234
0 ...............
1 ...............
2 ...............
3 ...............
4 ...............
5 ...............
6 ...............
7 ...............
8 ...............
9 .....t.....f...
0 ...............
1 ...............
2 r..............
3 ..r............
4 .rr............
5 .......rr......

Turn = 14.
  012345678901234
0 ...............
1 ...............
2 ...............
3 ...............
4 ...............
5 ...............
6 ...............
7 ...............
8 ...............
9 .....t.....f...
0 r..............
1 ...............
2 ...............
3 r..............
4 rr.............
5 .......rr......

Turn = 16.
  012345678901234
0 ...............
1 ...............
2 ...............
3 ...............
4 ...............
5 ...............
6 ...............
7 ...............
8 r..............
9 .....t.....f...
0 ...............
1 ...............
2 rr.............
3 ...............
4 ...............
5 r....r....r....

Turn = 18.
  012345678901234
0 ...............
1 ...............
2 ...............
3 ...............
4 ...............
5 ...............
6 r..............
7 ...............
8 ...............
9 .....t.....f...
0 rr.............
1 ...............
2 ...............
3 ...............
4 ...............
5 ..rr........r..

Turn = 20.
  012345678901234
0 ...............
1 ...............
2 ...............
3 ...............
4 r..............
5 ...............
6 ...............
7 ...............
8 rr.............
9 .....t.....f...
0 ...............
1 ...............
2 ...............
3 ...............
4 ...r...........
5 ..r...........r

*** Darwin 5x16 ***
Turn = 0.
  0123456789012345
0 ........f....rh.
1 tr....rf........
2 ...f............
3 ..r.............
4 .h..............

Turn = 3.
  0123456789012345
0 .....r..f....rr.
1 t...r..f........
2 ...f............
3 .....r..........
4 h...............

Turn = 6.
  0123456789012345
0 ..r.....f.......
1 t.....r........r
2 ...f...r........
3 ........r....r..
4 h...............

Turn = 9.
  0123456789012345
0 t.......f.......
1 t........r......
2 ...f............
3 ...........r....
4 h......r......rr

Turn = 12.
  0123456789012345
0 t.......f.......
1 t...........r...
2 ...f............
3 ..............rr
4 h.........r...r.

Turn = 15.
  0123456789012345
0 t.......f......r
1 t.............r.
2 ...f............
3 ...............r
4 h............r.r

Turn = 18.
  0123456789012345
0 t.......f....r.r
1 t..............r
2 ...f............
3 ...............r
4 h.............r.

Turn = 21.
  0123456789012345
0 t.......f.r.r..r
1 t..............r
2 ...f............
3 ................
4 h..............r

Turn = 24.
  0123456789012345
0 t.......rrr....r
1 t..............r
2 ...f............
3 ................
4 h..............r

*** Darwin 12x21 ***
Turn = 0.
  012345678901234567890
0 .....................
1 .....................
2 f..t.............t...
3 ........r............
4 .....................
5 ..f..................
6 .....................
7 ..h..................
8 ........r............
9 h....................
0 .......r........t.r..
1 .....................

Turn = 1.
  012345678901234567890
0 .....................
1 .....................
2 f..t.............t...
3 .......r.............
4 .....................
5 ..f..................
6 .....................
7 ........r............
8 h.h..................
9 .....................
0 ......r.........t....
1 ..................r..

Turn = 2.
  012345678901234567890
0 .....................
1 .....................
2 f..t.............t...
3 ......r..............
4 .....................
5 ..f..................
6 ........r............
7 h....................
8 .....................
9 ..h..................
0 .....r..........t....
1 ..................r..

Turn = 3.
  012345678901234567890
0 .....................
1 .....................
2 f..t.............t...
3 .....r...............
4 .....................
5 ..f.....r............
6 h....................
7 .....................
8 .....................
9 .....................
0 ..h.r...........t....
1 .................r...

Turn = 4.
  012345678901234567890
0 .....................
1 .....................
2 f..t.............t...
3 ....r................
4 ........r............
5 h.f..................
6 .....................
7 .....................
8 .....................
9 .....................
0 ...r............t....
1 ..h.............r....

Turn = 5.
  012345678901234567890
0 .....................
1 .....................
2 f..t.............t...
3 ...r....r............
4 h....................
5 ..f..................
6 .....................
7 .....................
8 .....................
9 .....................
0 ..r.............t....
1 ..h............r.....

Turn = 6.
  012345678901234567890
0 .....................
1 .....................
2 f..t....r........t...
3 h.r..................
4 .....................
5 ..f..................
6 .....................
7 .....................
8 .....................
9 .....................
0 .r..............t....
1 ..h...........r......

Turn = 7.
  012345678901234567890
0 .....................
1 ........r............
2 f..t.............t...
3 hr...................
4 .....................
5 ..f..................
6 .....................
7 .....................
8 .....................
9 .....................
0 r...............t....
1 ..h..........r.......

Turn = 8.
  012345678901234567890
0 ........r............
1 .....................
2 f..t.............t...
3 rr...................
4 .....................
5 ..f..................
6 .....................
7 .....................
8 .....................
9 .....................
0 r...............t....
1 ..h.........r........

Turn = 9.
  012345678901234567890
0 ........r............
1 .....................
2 r..t.............t...
3 rr...................
4 .....................
5 ..f..................
6 .....................
7 .....................
8 .....................
9 .....................
0 ................t....
1 r.h........r.........

Turn = 10.
  012345678901234567890
0 .........r...........
1 .....................
2 rr.t.............t...
3 r....................
4 .....................
5 ..f..................
6 .....................
7 .....................
8 .....................
9 .....................
0 ................t....
1 r.h.......r..........

*** Darwin 11x18 ***
Turn = 0.
  012345678901234567
0 ..................
1 ..................
2 ..................
3 ..................
4 ..................
5 ..................
6 ..................
7 ..................
8 ..h...............
9 .f................
0 .........r........

Turn = 4.
  012345678901234567
0 ..................
1 ..................
2 ..................
3 ..................
4 ..h...............
5 ..................
6 ..................
7 ..................
8 ..................
9 .f................
0 .............r....

Turn = 8.
  012345678901234567
0 ..h...............
1 ..................
2 ..................
3 ..................
4 ..................
5 ..................
6 ..................
7 ..................
8 ..................
9 .f................
0 .................r

Turn = 12.
  012345678901234567
0 ..h...............
1 ..................
2 ..................
3 ..................
4 ..................
5 ..................
6 ..................
7 ..................
8 ..................
9 .f................
0 .................r

Turn = 16.
  012345678901234567
0 ..h...............
1 ..................
2 ..................
3 ..................
4 ..................
5 ..................
6 ..................
7 ..................
8 ..................
9 .f................
0 .............r....

Turn = 20.
  012345678901234567
0 ..h...............
1 ..................
2 ..................
3 ..................
4 ..................
5 ..................
6 ..................
7 ..................
8 ..................
9 .f................
0 .........r........

*** Darwin 17x10 ***
Turn = 0.
  0123456789
0 ..........
1 ..........
2 ..........
3 ..........
4 ..........
5 ..........
6 ..........
7 ..........
8 ....r.....
9 ..........
0 ..........
1 ..........
2 ..........
3 ..........
4 ..........
5 ..........
6 ..........

Turn = 1.
  0123456789
0 ..........
1 ..........
2 ..........
3 ..........
4 ..........
5 ..........
6 ..........
7 ....r.....
8 ..........
9 ..........
0 ..........
1 ..........
2 ..........
3 ..........
4 ..........
5 ..........
6 ..........

Turn = 2.
  0123456789
0 ..........
1 ..........
2 ..........
3 ..........
4 ..........
5 ..........
6 ....r.....
7 ..........
8 ..........
9 ..........
0 ..........
1 ..........
2 ..........
3 ..........
4 ..........
5 ..........
6 ..........

Turn = 3.
  0123456789
0 ..........
1 ..........
2 ..........
3 ..........
4 ..........
5 ....r.....
6 ..........
7 ..........
8 ..........
9 ..........
0 ..........
1 ..........
2 ..........
3 ..........
4 ..........
5 ..........
6 ..........

Turn = 4.
  0123456789
0 ..........
1 ..........
2 ..........
3 ..........
4 ....r.....
5 ..........
6 ..........
7 ..........
8 ..........
9 ..........
0 ..........
1 ..........
2 ..........
3 ..........
4 ..........
5 ..........
6 ..........

Turn = 5.
  0123456789
0 ..........
1 ..........
2 ..........
3 ....r.....
4 ..........
5 ..........
6 ..........
7 ..........
8 ..........
9 ..........
0 ..........
1 ..........
2 ..........
3 ..........
4 ..........
5 ..........
6 ..........

Turn = 6.
  0123456789
0 ..........
1 ..........
2 ....r.....
3 ..........
4 ..........
5 ..........
6 ..........
7 ..........
8 ..........
9 ..........
0 ..........
1 ..........
2 ..........
3 ..........
4 ..........
5 ..........
6 ..........

Turn = 7.
  0123456789
0 ..........
1 ....r.....
2 ..........
3 ..........
4 ..........
5 ..........
6 ..........
7 ..........
8 ..........
9 ..........
0 ..........
1 ..........
2 ..........
3 ..........
4 ..........
5 ..........
6 ..........

Turn = 8.
  0123456789
0 ....r.....
1 ..........
2 ..........
3 ..........
4 ..........
5 ..........
6 ..........
7 ..........
8 ..........
9 ..........
0 ..........
1 ..........
2 ..........
3 ..........
4 ..........
5 ..........
6 ..........

Turn = 9.
  0123456789
0 ....r.....
1 ..........
2 ..........
3 ..........
4 ..........
5 ..........
6 ..........
7 ..........
8 ..........
9 ..........
0 ..........
1 ..........
2 ..........
3 ..........
4 ..........
5 ..........
6 ..........

Turn = 10.
  0123456789
0 .....r....
1 ..........
2 ..........
3 ..........
4 ..........
5 ..........
6 ..........
7 ..........
8 ..........
9 ..........
0 ..........
1 ..........
2 ..........
3 ..........
4 ..........
5 ..........
6 ..........

*** Darwin 8x10 ***
Turn = 0.
  0123456789
0 ..f.......
1 ......t...
2 ..........
3 .....h....
4 ....fr....
5 r.........
6 ..........
7 r.........

Turn = 3.
  0123456789
0 ..f.......
1 ......t...
2 ..........
3 ..h.......
4 ....f.....
5 ..........
6 .r........
7 .r...r....

Turn = 6.
  0123456789
0 ..f.......
1 ......t...
2 ..........
3 h.........
4 ....f.....
5 ..........
6 ....r.....
7 ...rr.....

Turn = 9.
  0123456789
0 ..f.......
1 ......t...
2 ..........
3 h.........
4 ....r.....
5 ....r.....
6 .......r..
7 .....r....

Turn = 12.
  0123456789
0 ..f.......
1 ....r.t...
2 ....r.....
3 h.........
4 ..........
5 ..........
6 .........r
7 ........r.

Turn = 15.
  0123456789
0 ..f..r....
1 .....rt...
2 ..........
3 h........r
4 ..........
5 ..........
6 .........r
7 ..........

Turn = 18.
  0123456789
0 ..f..r..rr
1 ........r.
2 ..........
3 h........r
4 ..........
5 ..........
6 ..........
7 ..........

Turn = 21.
  0123456789
0 ..f....rrr
1 ..........
2 ........rr
3 h.........
4 ..........
5 ..........
6 ..........
7 ..........

*** Darwin 11x9 ***
Turn = 0.
  012345678
0 .........
1 f........
2 .f.......
3 .........
4 .........
5 .........
6 ........t
7 .........
8 ........r
9 .t.......
0 .......r.

Turn = 3.
  012345678
0 .........
1 f........
2 .f.......
3 .........
4 .........
5 .........
6 ........t
7 ........t
8 .........
9 .t.......
0 .....r...

Turn = 6.
  012345678
0 .........
1 f........
2 .f.......
3 .........
4 .........
5 .........
6 ........t
7 ........t
8 .........
9 .t.......
0 ..r......

Turn = 9.
  012345678
0 .........
1 f........
2 .f.......
3 .........
4 .........
5 .........
6 ........t
7 ........t
8 .........
9 .t.......
0 .t.......

Turn = 12.
  012345678
0 .........
1 f........
2 .f.......
3 .........
4 .........
5 .........
6 ........t
7 ........t
8 .........
9 .t.......
0 .t.......

Turn = 15.
  012345678
0 .........
1 f........
2 .f.......
3 .........
4 .........
5 .........
6 ........t
7 ........t
8 .........
9 .t.......
0 .t.......

Turn = 18.
  012345678
0 .........
1 f........
2 .f.......
3 .........
4 .........
5 .........
6 ........t
7 ........t
8 .........
9 .t.......
0 .t.......

*** Darwin 15x13 ***
Turn = 0.
  0123456789012
0 .............
1 .f...........
2 t............
3 f........f...
4 ...t.........
5 r............
6 ...........h.
7 .....f.......
8 .............
9 .............
0 .............
1 ...f.........
2 ............t
3 .............
4 .............

Turn = 4.
  0123456789012
0 .............
1 .f...........
2 t............
3 t........f...
4 ...t.........
5 ....r........
6 .............
7 .....f.......
8 .............
9 .............
0 ...........h.
1 ...f.........
2 ............t
3 .............
4 .............

Turn = 8.
  0123456789012
0 .............
1 .f...........
2 t............
3 t........f...
4 ...t.........
5 ........r....
6 .............
7 .....f.......
8 .............
9 .............
0 .............
1 ...f.........
2 ...........tt
3 .............
4 .............

*** Darwin 20x8 ***
Turn = 0.
  01234567
0 ........
1 ........
2 ........
3 ..h..r..
4 .f......
5 f.......
6 ........
7 ...h....
8 f.......
9 ......r.
0 ........
1 ........
2 f.......
3 ........
4 ........
5 .......h
6 ........
7 ...f....
8 ....t...
9 ........

Turn = 4.
  01234567
0 .....r..
1 ........
2 ........
3 ........
4 .f......
5 f.......
6 ........
7 ..h.....
8 f.......
9 ........
0 ........
1 ...h...h
2 f.......
3 ......r.
4 ........
5 ........
6 ........
7 ...f....
8 ....t...
9 ........

Turn = 8.
  01234567
0 .......r
1 ........
2 ........
3 ........
4 .f......
5 f.......
6 ........
7 .......h
8 f.......
9 ........
0 ........
1 ..h.....
2 f.......
3 ........
4 ........
5 ...h....
6 ........
7 ...f..r.
8 ....t...
9 ........

Turn = 12.
  01234567
0 ........
1 ........
2 ........
3 .......r
4 .f.....h
5 f.......
6 ........
7 ........
8 f.......
9 ........
0 ........
1 ........
2 f.......
3 ........
4 ........
5 ..h.....
6 ...h....
7 ...f....
8 ....t...
9 .....r..

Turn = 16.
  01234567
0 ........
1 ........
2 ........
3 .......r
4 .f.....r
5 f.......
6 ........
7 ........
8 f.......
9 ........
0 ........
1 ........
2 f.......
3 ........
4 ........
5 ........
6 ...h....
7 ...f....
8 ..h.t...
9 .r......

Turn = 20.
  01234567
0 .......r
1 ........
2 ........
3 ........
4 .f......
5 f.......
6 ........
7 ........
8 f......r
9 ........
0 ........
1 ........
2 f.......
3 ........
4 ........
5 ........
6 ...h....
7 r..f....
8 ....t...
9 ..h.....

Turn = 24.
  01234567
0 ......r.
1 ........
2 ........
3 ........
4 .f......
5 f.......
6 ........
7 ........
8 f.......
9 ........
0 ........
1 ........
2 f......r
3 r.......
4 ........
5 ........
6 ...h....
7 ...f....
8 ....t...
9 ..h.....

*** Darwin 17x19 ***
Turn = 0.
  0123456789012345678
0 ...................
1 ...................
2 ...................
3 ...................
4 ...................
5 ...................
6 ...................
7 ...................
8 ..................h
9 ...................
0 ...................
1 ...................
2 ...................
3 ...................
4 ...................
5 ...................
6 ...................

Turn = 2.
  0123456789012345678
0 ...................
1 ...................
2 ...................
3 ...................
4 ...................
5 ...................
6 ...................
7 ...................
8 ..................h
9 ...................
0 ...................
1 ...................
2 ...................
3 ...................
4 ...................
5 ...................
6 ...................

Turn = 4.
  0123456789012345678
0 ...................
1 ...................
2 ...................
3 ...................
4 ...................
5 ...................
6 ...................
7 ...................
8 ..................h
9 ...................
0 ...................
1 ...................
2 ...................
3 ...................
4 ...................
5 ...................
6 ...................

Turn = 6.
  0123456789012345678
0 ...................
1 ...................
2 ...................
3 ...................
4 ...................
5 ...................
6 ...................
7 ...................
8 ..................h
9 ...................
0 ...................
1 ...................
2 ...................
3 ...................
4 ...................
5 ...................
6 ...................

Turn = 8.
  0123456789012345678
0 ...................
1 ...................
2 ...................
3 ...................
4 ...................
5 ...................
6 ...................
7 ...................
8 ..................h
9 ...................
0 ...................
1 ...................
2 ...................
3 ...................
4 ...................
5 ...................
6 ...................

Turn = 10.
  0123456789012345678
0 ...................
1 ...................
2 ...................
3 ...................
4 ...................
5 ...................
6 ...................
7 ...................
8 ..................h
9 ...................
0 ...................
1 ...................
2 ...................
3 ...................
4 ...................
5 ...................
6 ...................

Turn = 12.
  0123456789012345678
0 ...................
1 ...................
2 ...................
3 ...................
4 ...................
5 ...................
6 ...................
7 ...................
8 ..................h
9 ...................
0 ...................
1 ...................
2 ...................
3 ...................
4 ...................
5 ...................
6 ...................

Turn = 14.
  0123456789012345678
0 ...................
1 ...................
2 ...................
3 ...................
4 ...................
5 ...................
6 ...................
7 ...................
8 ..................h
9 ...................
0 ...................
1 ...................
2 ...................
3 ...................
4 ...................
5 ...................
6 ...................

Turn = 16.
  0123456789012345678
0 ...................
1 ...................
2 ...................
3 ...................
4 ...................
5 ...................
6 ...................
7 ...................
8 ..................h
9 ...................
0 ...................
1 ...................
2 ...................
3 ...................
4 ...................
5 ...................
6 ...................

Turn = 18.
  0123456789012345678
0 ...................
1 ...................
2 ...................
3 ...................
4 ...................
5 ...................
6 ...................
7 ...................
8 ..................h
9 ...................
0 ...................
1 ...................
2 ...................
3 ...................
4 ...................
5 ...................
6 ...................

Turn = 20.
  0123456789012345678
0 ...................
1 ...................
2 ...................
3 ...................
4 ...................
5 ...................
6 ...................
7 ...................
8 ..................h
9 ...................
0 ...................
1 ...................
2 ...................
3 ...................
4 ...................
5 ...................
6 ...................

Turn = 22.
  0123456789012345678
0 ...................
1 ...................
2 ...................
3 ...................
4 ...................
5 ...................
6 ...................
7 ...................
8 ..................h
9 ...................
0 ...................
1 ...................
2 ...................
3 ...................
4 ...................
5 ...................
6 ...................

Turn = 24.
  0123456789012345678
0 ...................
1 ...................
2 ...................
3 ...................
4 ...................
5 ...................
6 ...................
7 ...................
8 ..................h
9 ...................
0 ...................
1 ...................
2 ...................
3 ...................
4 ...................
5 ...................
6 ...................

*** Darwin 3x2 ***
Turn = 0.
  01
0 r.
1 t.
2 .r

Turn = 4.
  01
0 rr
1 ..
2 r.

Turn = 8.
  01
0 .r
1 rr
2 ..

*** Darwin 1x17 ***
Turn = 0.
  01234567890123456
0 .rr...h...tf.h.ht

Turn = 2.
  01234567890123456
0 ..r.rh....tt.h.tt

Turn = 4.
  01234567890123456
0 ...rrr....tt.h.tt

Turn = 6.
  01234567890123456
0 ..r.rr....tt.h.tt

Turn = 8.
  01234567890123456
0 r...rr....tt.h.tt

Turn = 10.
  01234567890123456
0 r..r...r..tt.h.tt

Turn = 12.
  01234567890123456
0 rr.......ttt.h.tt

Turn = 14.
  01234567890123456
0 rr.......ttt.h.tt

Turn = 16.
  01234567890123456
0 r..r.....ttt.h.tt

Turn = 18.
  01234567890123456
0 r....r...ttt.h.tt

Turn = 20.
  01234567890123456
0 ..r....r.ttt.h.tt

Turn = 22.
  01234567890123456
0 ....r...rrtt.h.tt

*** Darwin 17x6 ***
Turn = 0.
  012345
0 ......
1 ......
2 ......
3 ......
4 .....f
5 ......
6 ......
7 ......
8 ......
9 ......
0 ......
1 ......
2 ......
3 ..h...
4 ......
5 .....t
6 ......

Turn = 1.
  012345
0 ......
1 ......
2 ......
3 ......
4 .....f
5 ......
6 ......
7 ......
8 ......
9 ......
0 ......
1 ......
2 ......
3 ...h..
4 ......
5 .....t
6 ......

Turn = 2.
  012345
0 ......
1 ......
2 ......
3 ......
4 .....f
5 ......
6 ......
7 ......
8 ......
9 ......
0 ......
1 ......
2 ......
3 ....h.
4 ......
5 .....t
6 ......

Turn = 3.
  012345
0 ......
1 ......
2 ......
3 ......
4 .....f
5 ......
6 ......
7 ......
8 ......
9 ......
0 ......
1 ......
2 ......
3 .....h
4 ......
5 .....t
6 ......

Turn = 4.
  012345
0 ......
1 ......
2 ......
3 ......
4 .....f
5 ......
6 ......
7 ......
8 ......
9 ......
0 ......
1 ......
2 ......
3 .....h
4 ......
5 .....t
6 ......

Turn = 5.
  012345
0 ......
1 ......
2 ......
3 ......
4 .....f
5 ......
6 ......
7 ......
8 ......
9 ......
0 ......
1 ......
2 ......
3 .....h
4 ......
5 .....t
6 ......

Turn = 6.
  012345
0 ......
1 ......
2 ......
3 ......
4 .....f
5 ......
6 ......
7 ......
8 ......
9 ......
0 ......
1 ......
2 ......
3 .....h
4 ......
5 .....t
6 ......

Turn = 7.
  012345
0 ......
1 ......
2 ......
3 ......
4 .....f
5 ......
6 ......
7 ......
8 ......
9 ......
0 ......
1 ......
2 ......
3 .....h
4 ......
5 .....t
6 ......

Turn = 8.
  012345
0 ......
1 ......
2 ......
3 ......
4 .....f
5 ......
6 ......
7 ......
8 ......
9 ......
0 ......
1 ......
2 ......
3 .....h
4 ......
5 .....t
6 ......

Turn = 9.
  012345
0 ......
1 ......
2 ......
3 ......
4 .....f
5 ......
6 ......
7 ......
8 ......
9 ......
0 ......
1 ......
2 ......
3 .....h
4 ......
5 .....t
6 ......

Turn = 10.
  012345
0 ......
1 ......
2 ......
3 ......
4 .....f
5 ......
6 ......
7 ......
8 ......
9 ......
0 ......
1 ......
2 ......
3 .....h
4 ......
5 .....t
6 ......

Turn = 11.
  012345
0 ......
1 ......
2 ......
3 ......
4 .....f
5 ......
6 ......
7 ......
8 ......
9 ......
0 ......
1 ......
2 ......
3 .....h
4 ......
5 .....t
6 ......

*** Darwin 12x10 ***
Turn = 0.
  0123456789
0 ..h.......
1 ...h......
2 ..........
3 ..h.......
4 ..........
5 .tf.......
6 ..........
7 ....r.....
8 ..........
9 ..........
0 ..f.......
1 .rh.......

Turn = 4.
  0123456789
0 ..........
1 h.........
2 ..........
3 h...r.....
4 ..t.......
5 .tt.......
6 ..........
7 .r........
8 ..........
9 ..........
0 ..f.......
1 ..h.......

Turn = 8.
  0123456789
0 ....r.....
1 h.........
2 ..........
3 hr........
4 .rt.......
5 ..t.......
6 ..........
7 ..........
8 ..........
9 ..........
0 ..f.......
1 ..h.......

Turn = 12.
  0123456789
0 .r......r.
1 hr........
2 ..........
3 h.........
4 ..t.......
5 ..t.......
6 ..........
7 ..........
8 ..........
9 ..........
0 ..f.......
1 ..h.......

*** Darwin 10x1 ***
Turn = 0.
  0
0 .
1 .
2 .
3 .
4 .
5 .
6 h
7 .
8 f
9 .

Turn = 3.
  0
0 .
1 .
2 .
3 .
4 .
5 .
6 h
7 .
8 f
9 .

Turn = 6.
  0
0 .
1 .
2 .
3 .
4 .
5 .
6 h
7 .
8 f
9 .

Turn = 9.
  0
0 .
1 .
2 .
3 .
4 .
5 .
6 h
7 .
8 f
9 .

Turn = 12.
  0
0 .
1 .
2 .
3 .
4 .
5 .
6 h
7 .
8 f
9 .

Turn = 15.
  0
0 .
1 .
2 .
3 .
4 .
5 .
6 h
7 .
8 f
9 .

Turn = 18.
  0
0 .
1 .
2 .
3 .
4 .
5 .
6 h
7 .
8 f
9 .

Turn = 21.
  0
0 .
1 .
2 .
3 .
4 .
5 .
6 h
7 .
8 f
9 .

Turn = 24.
  0
0 .
1 .
2 .
3 .
4 .
5 .
6 h
7 .
8 f
9 .

Turn = 27.
  0
0 .
1 .
2 .
3 .
4 .
5 .
6 h
7 .
8 f
9 .

*** Darwin 5x20 ***
Turn = 0.
  01234567890123456789
0 .....t.....t..r.....
1 ....................
2 ....................
3 ....................
4 ...r.............h..

Turn = 1.
  01234567890123456789
0 .....t.....t........
1 ..............r.....
2 ....................
3 ...r................
4 .................h..

Turn = 2.
  01234567890123456789
0 .....t.....t........
1 ....................
2 ...r..........r.....
3 ....................
4 .................h..

Turn = 3.
  01234567890123456789
0 .....t.....t........
1 ...r................
2 ....................
3 ..............r.....
4 .................h..

Turn = 4.
  01234567890123456789
0 ...r.t.....t........
1 ....................
2 ....................
3 ....................
4 ..............r..h..

Turn = 5.
  01234567890123456789
0 ...r.t.....t........
1 ....................
2 ....................
3 ....................
4 ..............r..h..

Turn = 6.
  01234567890123456789
0 ....tt.....t........
1 ....................
2 ....................
3 ....................
4 ...............r.h..

Turn = 7.
  01234567890123456789
0 ....tt.....t........
1 ....................
2 ....................
3 ....................
4 ................rh..

Turn = 8.
  01234567890123456789
0 ....tt.....t........
1 ....................
2 ....................
3 ....................
4 ................rr..

Turn = 9.
  01234567890123456789
0 ....tt.....t........
1 ....................
2 ....................
3 ....................
4 ................rr..

Turn = 10.
  01234567890123456789
0 ....tt.....t........
1 ....................
2 ....................
3 .................r..
4 ................r...

Turn = 11.
  01234567890123456789
0 ....tt.....t........
1 ....................
2 .................r..
3 ....................
4 ...............r....

Turn = 12.
  01234567890123456789
0 ....tt.....t........
1 .................r..
2 ....................
3 ....................
4 ..............r.....

Turn = 13.
  01234567890123456789
0 ....tt.....t.....r..
1 ....................
2 ....................
3 ....................
4 .............r......

Turn = 14.
  01234567890123456789
0 ....tt.....t.....r..
1 ....................
2 ....................
3 ....................
4 ............r.......

Turn = 15.
  01234567890123456789
0 ....tt.....t....r...
1 ....................
2 ....................
3 ....................
4 ...........r........

Turn = 16.
  01234567890123456789
0 ....tt.....t...r....
1 ....................
2 ....................
3 ....................
4 ..........r.........

*** Darwin 15x7 ***
Turn = 0.
  0123456
0 .......
1 .......
2 .......
3 f......
4 .......
5 .......
6 .......
7 .t.....
8 .t.....
9 .......
0 .......
1 .......
2 .......
3 .......
4 .......

Turn = 4.
  0123456
0 .......
1 .......
2 .......
3 f......
4 .......
5 .......
6 .......
7 .t.....
8 .t.....
9 .......
0 .......
1 .......
2 .......
3 .......
4 .......

Turn = 8.
  0123456
0 .......
1 .......
2 .......
3 f......
4 .......
5 .......
6 .......
7 .t.....
8 .t.....
9 .......
0 .......
1 .......
2 .......
3 .......
4 .......

*** Darwin 10x10 ***
Turn = 0.
  0123456789
0 ........t.
1 ..........
2 f.........
3 ..........
4 .........h
5 .......r..
6 rr.h..r...
7 ..........
8 .......f..
9 t.....h...

Turn = 3.
  0123456789
0 ........t.
1 ..........
2 f.........
3 r.........
4 ......h...
5 ...rr.....
6 ..r.......
7 ..........
8 ......rf..
9 t.....r...

Turn = 6.
  0123456789
0 ........t.
1 r.........
2 ...r......
3 .rr.......
4 ...h......
5 .r........
6 ..........
7 ..........
8 ....r..f..
9 t..r......

Turn = 9.
  0123456789
0 r.rr....t.
1 .r........
2 ..........
3 ..........
4 r.........
5 r.........
6 ..........
7 ..........
8 .r.....f..
9 rr........

Turn = 12.
  0123456789
0 rrrr....t.
1 ..........
2 r.........
3 ..........
4 r.........
5 ..........
6 ..........
7 r.........
8 r......f..
9 ..r.......

*** Darwin 8x24 ***
Turn = 0.
  012345678901234567890123
0 ...................t...h
1 .....................f..
2 ........................
3 .......t................
4 .......t................
5 .......f....t...........
6 ..........h.............
7 ..................t.....

Turn = 2.
  012345678901234567890123
0 ...................t.h..
1 .....................f..
2 ........................
3 .......t................
4 .......t................
5 .......f....t...........
6 ........h...............
7 ..................t.....

Turn = 4.
  012345678901234567890123
0 ...................tt...
1 .....................f..
2 ........................
3 .......t................
4 .......t................
5 .......t....t...........
6 ......h.................
7 ..................t.....

Turn = 6.
  012345678901234567890123
0 ...................tt...
1 .....................f..
2 ........................
3 .......t................
4 .......t................
5 .......t....t...........
6 ....h...................
7 ..................t.....

Turn = 8.
  012345678901234567890123
0 ...................tt...
1 .....................f..
2 ........................
3 .......t................
4 .......t................
5 .......t....t...........
6 ..h.....................
7 ..................t.....

Turn = 10.
  012345678901234567890123
0 ...................tt...
1 .....................f..
2 ........................
3 .......t................
4 .......t................
5 .......t....t...........
6 h.......................
7 ..................t.....

Turn = 12.
  012345678901234567890123
0 ...................tt...
1 .....................f..
2 ........................
3 .......t................
4 .......t................
5 .......t....t...........
6 h.......................
7 ..................t.....

Turn = 14.
  012345678901234567890123
0 ...................tt...
1 .....................f..
2 ........................
3 .......t................
4 .......t................
5 .......t....t...........
6 h.......................
7 ..................t.....

Turn = 16.
  012345678901234567890123
0 ...................tt...
1 .....................f..
2 ........................
3 .......t................
4 .......t................
5 .......t....t...........
6 h.......................
7 ..................t.....

*** Darwin 24x24 ***
Turn = 0.
  012345678901234567890123
0 ........................
1 ........................
2 ........................
3 ........................
4 ........................
5 ........................
6 ........................
7 ........................
8 ........................
9 ........................
0 ........................
1 ........................
2 ........................
3 ........................
4 ........................
5 ........................
6 ........................
7 ........................
8 ........................
9 ........................
0 ........................
1 ..................f.....
2 ........................
3 ........................

Turn = 2.
  012345678901234567890123
0 ........................
1 ........................
2 ........................
3 ........................
4 ........................
5 ........................
6 ........................
7 ........................
8 ........................
9 ........................
0 ........................
1 ........................
2 ........................
3 ........................
4 ........................
5 ........................
6 ........................
7 ........................
8 ........................
9 ........................
0 ........................
1 ..................f.....
2 ........................
3 ........................

Turn = 4.
  012345678901234567890123
0 ........................
1 ........................
2 ........................
3 ........................
4 ........................
5 ........................
6 ........................
7 ........................
8 ........................
9 ........................
0 ........................
1 ........................
2 ........................
3 ........................
4 ........................
5 ........................
6 ........................
7 ........................
8 ........................
9 ........................
0 ........................
1 ..................f.....
2 ........................
3 ........................

Turn = 6.
  012345678901234567890123
0 ........................
1 ........................
2 ........................
3 ........................
4 ........................
5 ........................
6 ........................
7 ........................
8 ........................
9 ........................
0 ........................
1 ........................
2 ........................
3 ........................
4 ........................
5 ........................
6 ........................
7 ........................
8 ........................
9 ........................
0 ........................
1 ..................f.....
2 ........................
3 ........................

Turn = 8.
  012345678901234567890123
0 ........................
1 ........................
2 ........................
3 ........................
4 ........................
5 ........................
6 ........................
7 ........................
8 ........................
9 ........................
0 ........................
1 ........................
2 ........................
3 ........................
4 ........................
5 ........................
6 ........................
7 ........................
8 ........................
9 ........................
0 ........................
1 ..................f.....
2 ........................
3 ........................

Turn = 10.
  012345678901234567890123
0 ........................
1 ........................
2 ........................
3 ........................
4 ........................
5 ........................
6 ........................
7 ........................
8 ........................
9 ........................
0 ........................
1 ........................
2 ........................
3 ........................
4 ........................
5 ........................
6 ........................
7 ........................
8 ........................
9 ........................
0 ........................
1 ..................f.....
2 ........................
3 ........................

Turn = 12.
  012345678901234567890123
0 ........................
1 ........................
2 ........................
3 ........................
4 ........................
5 ........................
6 ........................
7 ........................
8 ........................
9 ........................
0 ........................
1 ........................
2 ........................
3 ........................
4 ........................
5 ........................
6 ........................
7 ........................
8 ........................
9 ........................
0 ........................
1 ..................f.....
2 ........................
3 ........................

Turn = 14.
  012345678901234567890123
0 ........................
1 ........................
2 ........................
3 ........................
4 ........................
5 ........................
6 ........................
7 ........................
8 ........................
9 ........................
0 ........................
1 ........................
2 ........................
3 ........................
4 ........................
5 ........................
6 ........................
7 ........................
8 ........................
9 ........................
0 ........................
1 ..................f.....
2 ........................
3 ........................

Turn = 16.
  012345678901234567890123
0 ........................
1 ........................
2 ........................
3 ........................
4 ........................
5 ........................
6 ........................
7 ........................
8 ........................
9 ........................
0 ........................
1 ........................
2 ........................
3 ........................
4 ........................
5 ........................
6 ........................
7 ........................
8 ........................
9 ........................
0 ........................
1 ..................f.....
2 ........................
3 ........................

*** Darwin 13x17 ***
Turn = 0.
  01234567890123456
0 .......h.........
1 .................
2 .................
3 .................
4 .................
5 .............h...
6 ......t..........
7 .................
8 .................
9 .................
0 .................
1 .................
2 .................

Turn = 3.
  01234567890123456
0 ..........h......
1 .................
2 .............h...
3 .................
4 .................
5 .................
6 ......t..........
7 .................
8 .................
9 .................
0 .................
1 .................
2 .................

Turn = 6.
  01234567890123456
0 ............hh...
1 .................
2 .................
3 .................
4 .................
5 .................
6 ......t..........
7 .................
8 .................
9 .................
0 .................
1 .................
2 .................

Turn = 9.
  01234567890123456
0 ............hh...
1 .................
2 .................
3 .................
4 .................
5 .................
6 ......t..........
7 .................
8 .................
9 .................
0 .................
1 .................
2 .................

Turn = 12.
  01234567890123456
0 ............hh...
1 .................
2 .................
3 .................
4 .................
5 .................
6 ......t..........
7 .................
8 .................
9 .................
0 .................
1 .................
2 .................

Turn = 15.
  01234567890123456
0 ............hh...
1 .................
2 .................
3 .................
4 .................
5 .................
6 ......t..........
7 .................
8 .................
9 .................
0 .................
1 .................
2 .................

Turn = 18.
  01234567890123456
0 ............hh...
1 .................
2 .................
3 .................
4 .................
5 .................
6 ......t..........
7 .................
8 .................
9 .................
0 .................
1 .................
2 .................

*** Darwin 1x22 ***
Turn = 0.
  0123456789012345678901
0 ..........f.tt........

Turn = 3.
  0123456789012345678901
0 ..........f.tt........

Turn = 6.
  0123456789012345678901
0 ..........f.tt........

Turn = 9.
  0123456789012345678901
0 ..........f.tt........

Turn = 12.
  0123456789012345678901
0 ..........f.tt........
